info face="DJB HOLLY JOLLY B'GOLLY" size=32 bold=0 italic=0 charset="" unicode=1 stretchH=100 smooth=1 aa=1 padding=0,0,0,0 spacing=1,1 outline=0
common lineHeight=32 base=22 scaleW=256 scaleH=128 pages=1 packed=0 alphaChnl=0 redChnl=4 greenChnl=4 blueChnl=4
page id=0 file="DJB HOLLY JOLLY B'GOLLY_troop_0.tga"
chars count=191
char id=32   x=23    y=50    width=3     height=1     xoffset=-1    yoffset=31    xadvance=9     page=0  chnl=15
char id=33   x=249   y=44    width=5     height=18    xoffset=2     yoffset=1     xadvance=7     page=0  chnl=15
char id=34   x=36    y=88    width=9     height=7     xoffset=1     yoffset=1     xadvance=10    page=0  chnl=15
char id=35   x=175   y=79    width=3     height=1     xoffset=-1    yoffset=31    xadvance=13    page=0  chnl=15
char id=36   x=40    y=47    width=12    height=21    xoffset=1     yoffset=0     xadvance=14    page=0  chnl=15
char id=37   x=19    y=48    width=3     height=1     xoffset=-1    yoffset=31    xadvance=15    page=0  chnl=15
char id=38   x=52    y=24    width=15    height=21    xoffset=1     yoffset=1     xadvance=16    page=0  chnl=15
char id=39   x=52    y=87    width=5     height=7     xoffset=0     yoffset=1     xadvance=5     page=0  chnl=15
char id=40   x=56    y=0     width=8     height=23    xoffset=2     yoffset=0     xadvance=11    page=0  chnl=15
char id=41   x=65    y=0     width=7     height=23    xoffset=3     yoffset=0     xadvance=11    page=0  chnl=15
char id=42   x=223   y=63    width=12    height=11    xoffset=1     yoffset=3     xadvance=13    page=0  chnl=15
char id=43   x=197   y=63    width=13    height=12    xoffset=0     yoffset=7     xadvance=13    page=0  chnl=15
char id=44   x=46    y=87    width=5     height=7     xoffset=1     yoffset=15    xadvance=6     page=0  chnl=15
char id=45   x=79    y=84    width=11    height=3     xoffset=0     yoffset=9     xadvance=10    page=0  chnl=15
char id=46   x=11    y=26    width=5     height=3     xoffset=1     yoffset=16    xadvance=5     page=0  chnl=15
char id=47   x=19    y=50    width=3     height=1     xoffset=-1    yoffset=31    xadvance=5     page=0  chnl=15
char id=48   x=79    y=46    width=16    height=19    xoffset=0     yoffset=1     xadvance=16    page=0  chnl=15
char id=49   x=43    y=69    width=11    height=17    xoffset=1     yoffset=2     xadvance=12    page=0  chnl=15
char id=50   x=30    y=70    width=12    height=17    xoffset=1     yoffset=2     xadvance=13    page=0  chnl=15
char id=51   x=222   y=44    width=13    height=18    xoffset=-1    yoffset=2     xadvance=12    page=0  chnl=15
char id=52   x=179   y=44    width=14    height=18    xoffset=0     yoffset=1     xadvance=14    page=0  chnl=15
char id=53   x=208   y=44    width=13    height=18    xoffset=0     yoffset=2     xadvance=14    page=0  chnl=15
char id=54   x=194   y=44    width=13    height=18    xoffset=0     yoffset=1     xadvance=13    page=0  chnl=15
char id=55   x=12    y=75    width=11    height=18    xoffset=2     yoffset=1     xadvance=13    page=0  chnl=15
char id=56   x=124   y=45    width=13    height=19    xoffset=0     yoffset=0     xadvance=13    page=0  chnl=15
char id=57   x=0     y=75    width=11    height=18    xoffset=0     yoffset=2     xadvance=12    page=0  chnl=15
char id=58   x=249   y=63    width=5     height=11    xoffset=1     yoffset=8     xadvance=5     page=0  chnl=15
char id=59   x=138   y=65    width=5     height=14    xoffset=1     yoffset=8     xadvance=6     page=0  chnl=15
char id=60   x=187   y=63    width=9     height=13    xoffset=-1    yoffset=6     xadvance=8     page=0  chnl=15
char id=61   x=25    y=94    width=10    height=8     xoffset=0     yoffset=7     xadvance=10    page=0  chnl=15
char id=62   x=157   y=65    width=9     height=13    xoffset=-1    yoffset=6     xadvance=8     page=0  chnl=15
char id=63   x=73    y=0     width=13    height=22    xoffset=2     yoffset=1     xadvance=15    page=0  chnl=15
char id=64   x=23    y=48    width=3     height=1     xoffset=-1    yoffset=31    xadvance=19    page=0  chnl=15
char id=65   x=116   y=23    width=15    height=21    xoffset=-1    yoffset=1     xadvance=15    page=0  chnl=15
char id=66   x=0     y=31    width=18    height=21    xoffset=-1    yoffset=1     xadvance=17    page=0  chnl=15
char id=67   x=194   y=22    width=14    height=21    xoffset=0     yoffset=1     xadvance=13    page=0  chnl=15
char id=68   x=225   y=0     width=19    height=21    xoffset=-1    yoffset=1     xadvance=17    page=0  chnl=15
char id=69   x=209   y=22    width=14    height=21    xoffset=-1    yoffset=1     xadvance=12    page=0  chnl=15
char id=70   x=0     y=53    width=13    height=21    xoffset=-1    yoffset=1     xadvance=10    page=0  chnl=15
char id=71   x=132   y=23    width=15    height=21    xoffset=0     yoffset=1     xadvance=14    page=0  chnl=15
char id=72   x=114   y=0     width=12    height=22    xoffset=-1    yoffset=1     xadvance=11    page=0  chnl=15
char id=73   x=138   y=45    width=11    height=19    xoffset=-1    yoffset=3     xadvance=10    page=0  chnl=15
char id=74   x=27    y=48    width=12    height=21    xoffset=0     yoffset=1     xadvance=12    page=0  chnl=15
char id=75   x=164   y=22    width=14    height=21    xoffset=-1    yoffset=1     xadvance=12    page=0  chnl=15
char id=76   x=239   y=22    width=13    height=21    xoffset=-1    yoffset=1     xadvance=11    page=0  chnl=15
char id=77   x=37    y=0     width=18    height=23    xoffset=0     yoffset=0     xadvance=18    page=0  chnl=15
char id=78   x=127   y=0     width=12    height=22    xoffset=0     yoffset=1     xadvance=12    page=0  chnl=15
char id=79   x=185   y=0     width=19    height=21    xoffset=-1    yoffset=1     xadvance=18    page=0  chnl=15
char id=80   x=19    y=26    width=16    height=21    xoffset=-1    yoffset=1     xadvance=14    page=0  chnl=15
char id=81   x=205   y=0     width=19    height=21    xoffset=-1    yoffset=1     xadvance=17    page=0  chnl=15
char id=82   x=224   y=22    width=14    height=21    xoffset=-1    yoffset=1     xadvance=12    page=0  chnl=15
char id=83   x=36    y=25    width=15    height=21    xoffset=-1    yoffset=1     xadvance=14    page=0  chnl=15
char id=84   x=84    y=23    width=15    height=21    xoffset=-1    yoffset=1     xadvance=13    page=0  chnl=15
char id=85   x=179   y=22    width=14    height=21    xoffset=-1    yoffset=1     xadvance=13    page=0  chnl=15
char id=86   x=68    y=24    width=15    height=21    xoffset=0     yoffset=1     xadvance=14    page=0  chnl=15
char id=87   x=164   y=0     width=20    height=21    xoffset=0     yoffset=1     xadvance=19    page=0  chnl=15
char id=88   x=14    y=53    width=12    height=21    xoffset=0     yoffset=1     xadvance=12    page=0  chnl=15
char id=89   x=148   y=23    width=15    height=21    xoffset=-1    yoffset=1     xadvance=14    page=0  chnl=15
char id=90   x=100   y=23    width=15    height=21    xoffset=-1    yoffset=1     xadvance=13    page=0  chnl=15
char id=91   x=153   y=0     width=10    height=22    xoffset=-1    yoffset=1     xadvance=9     page=0  chnl=15
char id=92   x=103   y=81    width=3     height=1     xoffset=-1    yoffset=31    xadvance=5     page=0  chnl=15
char id=93   x=245   y=0     width=10    height=21    xoffset=0     yoffset=1     xadvance=10    page=0  chnl=15
char id=94   x=107   y=81    width=3     height=1     xoffset=-1    yoffset=31    xadvance=10    page=0  chnl=15
char id=95   x=111   y=80    width=3     height=1     xoffset=-1    yoffset=31    xadvance=10    page=0  chnl=15
char id=96   x=115   y=80    width=3     height=1     xoffset=-1    yoffset=31    xadvance=10    page=0  chnl=15
char id=97   x=99    y=65    width=11    height=15    xoffset=0     yoffset=6     xadvance=11    page=0  chnl=15
char id=98   x=96    y=45    width=13    height=19    xoffset=0     yoffset=1     xadvance=12    page=0  chnl=15
char id=99   x=127   y=65    width=10    height=14    xoffset=0     yoffset=7     xadvance=10    page=0  chnl=15
char id=100  x=110   y=45    width=13    height=19    xoffset=0     yoffset=1     xadvance=13    page=0  chnl=15
char id=101  x=211   y=63    width=11    height=12    xoffset=-1    yoffset=6     xadvance=10    page=0  chnl=15
char id=102  x=101   y=0     width=12    height=22    xoffset=-1    yoffset=0     xadvance=10    page=0  chnl=15
char id=103  x=24    y=0     width=12    height=24    xoffset=0     yoffset=7     xadvance=12    page=0  chnl=15
char id=104  x=150   y=45    width=10    height=19    xoffset=0     yoffset=2     xadvance=11    page=0  chnl=15
char id=105  x=172   y=44    width=6     height=19    xoffset=0     yoffset=1     xadvance=6     page=0  chnl=15
char id=106  x=0     y=0     width=10    height=30    xoffset=-2    yoffset=1     xadvance=9     page=0  chnl=15
char id=107  x=236   y=44    width=12    height=18    xoffset=-1    yoffset=2     xadvance=10    page=0  chnl=15
char id=108  x=24    y=75    width=5     height=18    xoffset=1     yoffset=2     xadvance=7     page=0  chnl=15
char id=109  x=55    y=67    width=18    height=16    xoffset=0     yoffset=6     xadvance=18    page=0  chnl=15
char id=110  x=236   y=63    width=12    height=11    xoffset=0     yoffset=8     xadvance=12    page=0  chnl=15
char id=111  x=0     y=94    width=12    height=11    xoffset=0     yoffset=7     xadvance=13    page=0  chnl=15
char id=112  x=53    y=46    width=12    height=20    xoffset=0     yoffset=6     xadvance=12    page=0  chnl=15
char id=113  x=66    y=46    width=12    height=20    xoffset=0     yoffset=7     xadvance=13    page=0  chnl=15
char id=114  x=74    y=67    width=11    height=16    xoffset=0     yoffset=5     xadvance=11    page=0  chnl=15
char id=115  x=86    y=66    width=12    height=15    xoffset=-1    yoffset=6     xadvance=11    page=0  chnl=15
char id=116  x=161   y=45    width=10    height=19    xoffset=1     yoffset=1     xadvance=10    page=0  chnl=15
char id=117  x=144   y=65    width=12    height=13    xoffset=0     yoffset=7     xadvance=11    page=0  chnl=15
char id=118  x=177   y=64    width=9     height=13    xoffset=-1    yoffset=6     xadvance=8     page=0  chnl=15
char id=119  x=111   y=65    width=15    height=14    xoffset=0     yoffset=6     xadvance=15    page=0  chnl=15
char id=120  x=167   y=65    width=9     height=13    xoffset=0     yoffset=7     xadvance=9     page=0  chnl=15
char id=121  x=11    y=0     width=12    height=25    xoffset=0     yoffset=7     xadvance=12    page=0  chnl=15
char id=122  x=13    y=94    width=11    height=10    xoffset=0     yoffset=8     xadvance=10    page=0  chnl=15
char id=123  x=140   y=0     width=12    height=22    xoffset=2     yoffset=0     xadvance=14    page=0  chnl=15
char id=124  x=119   y=80    width=3     height=1     xoffset=-1    yoffset=31    xadvance=10    page=0  chnl=15
char id=125  x=87    y=0     width=13    height=22    xoffset=1     yoffset=0     xadvance=13    page=0  chnl=15
char id=126  x=58    y=84    width=20    height=6     xoffset=0     yoffset=8     xadvance=19    page=0  chnl=15
char id=160  x=123   y=80    width=3     height=1     xoffset=-1    yoffset=31    xadvance=9     page=0  chnl=15
char id=161  x=127   y=80    width=3     height=1     xoffset=-1    yoffset=31    xadvance=6     page=0  chnl=15
char id=162  x=131   y=80    width=3     height=1     xoffset=-1    yoffset=31    xadvance=11    page=0  chnl=15
char id=163  x=135   y=80    width=3     height=1     xoffset=-1    yoffset=31    xadvance=10    page=0  chnl=15
char id=164  x=139   y=80    width=3     height=1     xoffset=-1    yoffset=31    xadvance=10    page=0  chnl=15
char id=165  x=143   y=80    width=3     height=1     xoffset=-1    yoffset=31    xadvance=12    page=0  chnl=15
char id=166  x=147   y=79    width=3     height=1     xoffset=-1    yoffset=31    xadvance=10    page=0  chnl=15
char id=167  x=151   y=79    width=3     height=1     xoffset=-1    yoffset=31    xadvance=10    page=0  chnl=15
char id=168  x=155   y=79    width=3     height=1     xoffset=-1    yoffset=31    xadvance=10    page=0  chnl=15
char id=169  x=159   y=79    width=3     height=1     xoffset=-1    yoffset=31    xadvance=16    page=0  chnl=15
char id=170  x=163   y=79    width=3     height=1     xoffset=-1    yoffset=31    xadvance=6     page=0  chnl=15
char id=171  x=167   y=79    width=3     height=1     xoffset=-1    yoffset=31    xadvance=9     page=0  chnl=15
char id=172  x=171   y=79    width=3     height=1     xoffset=-1    yoffset=31    xadvance=10    page=0  chnl=15
char id=173  x=91    y=82    width=11    height=3     xoffset=0     yoffset=9     xadvance=10    page=0  chnl=15
char id=174  x=179   y=78    width=3     height=1     xoffset=-1    yoffset=31    xadvance=16    page=0  chnl=15
char id=175  x=183   y=78    width=3     height=1     xoffset=-1    yoffset=31    xadvance=6     page=0  chnl=15
char id=176  x=187   y=77    width=3     height=1     xoffset=-1    yoffset=31    xadvance=6     page=0  chnl=15
char id=177  x=191   y=77    width=3     height=1     xoffset=-1    yoffset=31    xadvance=10    page=0  chnl=15
char id=178  x=195   y=77    width=3     height=1     xoffset=-1    yoffset=31    xadvance=10    page=0  chnl=15
char id=179  x=199   y=76    width=3     height=1     xoffset=-1    yoffset=31    xadvance=10    page=0  chnl=15
char id=180  x=203   y=76    width=3     height=1     xoffset=-1    yoffset=31    xadvance=10    page=0  chnl=15
char id=181  x=207   y=76    width=3     height=1     xoffset=-1    yoffset=31    xadvance=11    page=0  chnl=15
char id=182  x=211   y=76    width=3     height=1     xoffset=-1    yoffset=31    xadvance=10    page=0  chnl=15
char id=183  x=215   y=76    width=3     height=1     xoffset=-1    yoffset=31    xadvance=5     page=0  chnl=15
char id=184  x=219   y=76    width=3     height=1     xoffset=-1    yoffset=31    xadvance=10    page=0  chnl=15
char id=185  x=223   y=75    width=3     height=1     xoffset=-1    yoffset=31    xadvance=10    page=0  chnl=15
char id=186  x=227   y=75    width=3     height=1     xoffset=-1    yoffset=31    xadvance=7     page=0  chnl=15
char id=187  x=231   y=75    width=3     height=1     xoffset=-1    yoffset=31    xadvance=9     page=0  chnl=15
char id=188  x=235   y=75    width=3     height=1     xoffset=-1    yoffset=31    xadvance=16    page=0  chnl=15
char id=189  x=239   y=75    width=3     height=1     xoffset=-1    yoffset=31    xadvance=19    page=0  chnl=15
char id=190  x=243   y=75    width=3     height=1     xoffset=-1    yoffset=31    xadvance=16    page=0  chnl=15
char id=191  x=247   y=75    width=3     height=1     xoffset=-1    yoffset=31    xadvance=7     page=0  chnl=15
char id=192  x=251   y=75    width=3     height=1     xoffset=-1    yoffset=31    xadvance=15    page=0  chnl=15
char id=193  x=30    y=88    width=3     height=1     xoffset=-1    yoffset=31    xadvance=15    page=0  chnl=15
char id=194  x=30    y=90    width=3     height=1     xoffset=-1    yoffset=31    xadvance=15    page=0  chnl=15
char id=195  x=30    y=92    width=3     height=1     xoffset=-1    yoffset=31    xadvance=15    page=0  chnl=15
char id=196  x=86    y=82    width=3     height=1     xoffset=-1    yoffset=31    xadvance=15    page=0  chnl=15
char id=197  x=25    y=103   width=3     height=1     xoffset=-1    yoffset=31    xadvance=15    page=0  chnl=15
char id=198  x=29    y=103   width=3     height=1     xoffset=-1    yoffset=31    xadvance=20    page=0  chnl=15
char id=199  x=33    y=103   width=3     height=1     xoffset=-1    yoffset=31    xadvance=13    page=0  chnl=15
char id=200  x=37    y=96    width=3     height=1     xoffset=-1    yoffset=31    xadvance=11    page=0  chnl=15
char id=201  x=41    y=96    width=3     height=1     xoffset=-1    yoffset=31    xadvance=11    page=0  chnl=15
char id=202  x=45    y=96    width=3     height=1     xoffset=-1    yoffset=31    xadvance=11    page=0  chnl=15
char id=203  x=49    y=95    width=3     height=1     xoffset=-1    yoffset=31    xadvance=11    page=0  chnl=15
char id=204  x=53    y=95    width=3     height=1     xoffset=-1    yoffset=31    xadvance=6     page=0  chnl=15
char id=205  x=57    y=95    width=3     height=1     xoffset=-1    yoffset=31    xadvance=6     page=0  chnl=15
char id=206  x=61    y=91    width=3     height=1     xoffset=-1    yoffset=31    xadvance=6     page=0  chnl=15
char id=207  x=65    y=91    width=3     height=1     xoffset=-1    yoffset=31    xadvance=6     page=0  chnl=15
char id=208  x=69    y=91    width=3     height=1     xoffset=-1    yoffset=31    xadvance=14    page=0  chnl=15
char id=209  x=73    y=91    width=3     height=1     xoffset=-1    yoffset=31    xadvance=15    page=0  chnl=15
char id=210  x=77    y=91    width=3     height=1     xoffset=-1    yoffset=31    xadvance=15    page=0  chnl=15
char id=211  x=81    y=88    width=3     height=1     xoffset=-1    yoffset=31    xadvance=15    page=0  chnl=15
char id=212  x=85    y=88    width=3     height=1     xoffset=-1    yoffset=31    xadvance=15    page=0  chnl=15
char id=213  x=89    y=88    width=3     height=1     xoffset=-1    yoffset=31    xadvance=15    page=0  chnl=15
char id=214  x=93    y=86    width=3     height=1     xoffset=-1    yoffset=31    xadvance=15    page=0  chnl=15
char id=215  x=97    y=86    width=3     height=1     xoffset=-1    yoffset=31    xadvance=10    page=0  chnl=15
char id=216  x=101   y=86    width=3     height=1     xoffset=-1    yoffset=31    xadvance=15    page=0  chnl=15
char id=217  x=105   y=83    width=3     height=1     xoffset=-1    yoffset=31    xadvance=14    page=0  chnl=15
char id=218  x=109   y=83    width=3     height=1     xoffset=-1    yoffset=31    xadvance=14    page=0  chnl=15
char id=219  x=113   y=82    width=3     height=1     xoffset=-1    yoffset=31    xadvance=14    page=0  chnl=15
char id=220  x=117   y=82    width=3     height=1     xoffset=-1    yoffset=31    xadvance=14    page=0  chnl=15
char id=221  x=121   y=82    width=3     height=1     xoffset=-1    yoffset=31    xadvance=12    page=0  chnl=15
char id=222  x=125   y=82    width=3     height=1     xoffset=-1    yoffset=31    xadvance=11    page=0  chnl=15
char id=223  x=129   y=82    width=3     height=1     xoffset=-1    yoffset=31    xadvance=12    page=0  chnl=15
char id=224  x=133   y=82    width=3     height=1     xoffset=-1    yoffset=31    xadvance=9     page=0  chnl=15
char id=225  x=137   y=82    width=3     height=1     xoffset=-1    yoffset=31    xadvance=9     page=0  chnl=15
char id=226  x=141   y=82    width=3     height=1     xoffset=-1    yoffset=31    xadvance=9     page=0  chnl=15
char id=227  x=145   y=82    width=3     height=1     xoffset=-1    yoffset=31    xadvance=9     page=0  chnl=15
char id=228  x=149   y=81    width=3     height=1     xoffset=-1    yoffset=31    xadvance=9     page=0  chnl=15
char id=229  x=153   y=81    width=3     height=1     xoffset=-1    yoffset=31    xadvance=9     page=0  chnl=15
char id=230  x=157   y=81    width=3     height=1     xoffset=-1    yoffset=31    xadvance=14    page=0  chnl=15
char id=231  x=161   y=81    width=3     height=1     xoffset=-1    yoffset=31    xadvance=9     page=0  chnl=15
char id=232  x=165   y=81    width=3     height=1     xoffset=-1    yoffset=31    xadvance=9     page=0  chnl=15
char id=233  x=169   y=81    width=3     height=1     xoffset=-1    yoffset=31    xadvance=9     page=0  chnl=15
char id=234  x=173   y=81    width=3     height=1     xoffset=-1    yoffset=31    xadvance=9     page=0  chnl=15
char id=235  x=177   y=81    width=3     height=1     xoffset=-1    yoffset=31    xadvance=9     page=0  chnl=15
char id=236  x=181   y=80    width=3     height=1     xoffset=-1    yoffset=31    xadvance=5     page=0  chnl=15
char id=237  x=185   y=80    width=3     height=1     xoffset=-1    yoffset=31    xadvance=5     page=0  chnl=15
char id=238  x=189   y=79    width=3     height=1     xoffset=-1    yoffset=31    xadvance=5     page=0  chnl=15
char id=239  x=193   y=79    width=3     height=1     xoffset=-1    yoffset=31    xadvance=5     page=0  chnl=15
char id=240  x=197   y=79    width=3     height=1     xoffset=-1    yoffset=31    xadvance=11    page=0  chnl=15
char id=241  x=201   y=78    width=3     height=1     xoffset=-1    yoffset=31    xadvance=11    page=0  chnl=15
char id=242  x=205   y=78    width=3     height=1     xoffset=-1    yoffset=31    xadvance=10    page=0  chnl=15
char id=243  x=209   y=78    width=3     height=1     xoffset=-1    yoffset=31    xadvance=10    page=0  chnl=15
char id=244  x=213   y=78    width=3     height=1     xoffset=-1    yoffset=31    xadvance=10    page=0  chnl=15
char id=245  x=217   y=78    width=3     height=1     xoffset=-1    yoffset=31    xadvance=10    page=0  chnl=15
char id=246  x=221   y=78    width=3     height=1     xoffset=-1    yoffset=31    xadvance=10    page=0  chnl=15
char id=247  x=225   y=77    width=3     height=1     xoffset=-1    yoffset=31    xadvance=10    page=0  chnl=15
char id=248  x=229   y=77    width=3     height=1     xoffset=-1    yoffset=31    xadvance=10    page=0  chnl=15
char id=249  x=233   y=77    width=3     height=1     xoffset=-1    yoffset=31    xadvance=10    page=0  chnl=15
char id=250  x=237   y=77    width=3     height=1     xoffset=-1    yoffset=31    xadvance=10    page=0  chnl=15
char id=251  x=241   y=77    width=3     height=1     xoffset=-1    yoffset=31    xadvance=10    page=0  chnl=15
char id=252  x=245   y=77    width=3     height=1     xoffset=-1    yoffset=31    xadvance=10    page=0  chnl=15
char id=253  x=249   y=77    width=3     height=1     xoffset=-1    yoffset=31    xadvance=8     page=0  chnl=15
char id=254  x=37    y=98    width=3     height=1     xoffset=-1    yoffset=31    xadvance=10    page=0  chnl=15
char id=255  x=41    y=98    width=3     height=1     xoffset=-1    yoffset=31    xadvance=8     page=0  chnl=15
kernings count=23
kerning first=70  second=97  amount=-4  
kerning first=70  second=101 amount=-1  
kerning first=70  second=105 amount=1   
kerning first=70  second=111 amount=-3  
kerning first=70  second=114 amount=-1  
kerning first=70  second=117 amount=-2  
kerning first=76  second=97  amount=-4  
kerning first=76  second=101 amount=-3  
kerning first=76  second=105 amount=-3  
kerning first=76  second=111 amount=-4  
kerning first=76  second=117 amount=-4  
kerning first=76  second=121 amount=-3  
kerning first=84  second=97  amount=-2  
kerning first=84  second=101 amount=-2  
kerning first=84  second=111 amount=-3  
kerning first=84  second=114 amount=-2  
kerning first=84  second=117 amount=-2  
kerning first=114 second=97  amount=-3  
kerning first=114 second=100 amount=-4  
kerning first=114 second=101 amount=-1  
kerning first=114 second=103 amount=-4  
kerning first=114 second=111 amount=-2  
kerning first=114 second=116 amount=-1  
