%YAML 1.1
%TAG !u! tag:unity3d.com,2011:
--- !u!1 &100000
GameObject:
  m_ObjectHideFlags: 0
  m_PrefabParentObject: {fileID: 0}
  m_PrefabInternal: {fileID: 100100000}
  serializedVersion: 4
  m_Component:
  - 4: {fileID: 400000}
  - 114: {fileID: 11400000}
  m_Layer: 0
  m_Name: BadgeManager
  m_TagString: Untagged
  m_Icon: {fileID: 0}
  m_NavMeshLayer: 0
  m_StaticEditorFlags: 0
  m_IsActive: 1
--- !u!4 &400000
Transform:
  m_ObjectHideFlags: 1
  m_PrefabParentObject: {fileID: 0}
  m_PrefabInternal: {fileID: 100100000}
  m_GameObject: {fileID: 100000}
  m_LocalRotation: {x: 0, y: 0, z: 0, w: 1}
  m_LocalPosition: {x: 0, y: 0, z: -0}
  m_LocalScale: {x: 1, y: 1, z: 1}
  m_Children: []
  m_Father: {fileID: 0}
  m_RootOrder: 0
--- !u!114 &11400000
MonoBehaviour:
  m_ObjectHideFlags: 1
  m_PrefabParentObject: {fileID: 0}
  m_PrefabInternal: {fileID: 100100000}
  m_GameObject: {fileID: 100000}
  m_Enabled: 1
  m_EditorHideFlags: 0
  m_Script: {fileID: 11500000, guid: 301e7d4de0e7eac4cac99d0f3f7cee9f, type: 3}
  m_Name: 
  m_EditorClassIdentifier: 
  badgePopup: {fileID: 100004, guid: 572fe43dc25cb35479a334dd09e677b6, type: 2}
  uiRoot: {fileID: 0}
  emitter: {fileID: 0}
  popupMoveTarget: {fileID: 0}
  popupRank: {fileID: 0}
  debugMode: 0
  currentDepth: 0
  RewardInLogsForCollectingABadge: 5
  timeBeforeBadgeDisplay: 3
  editorBadges:
  - title: Graceful Jumpers
    id: 0
    statistic: 40
    requiredStat: 3
    description: Jump three rocks
    spriteName: BadgeSymbol@GracefulJumpers
    badgeLevel: -1
    priceLogs: 500
    priceMarshmallows: -1
  - title: Lightning Reflexes
    id: 1
    statistic: 41
    requiredStat: 3
    description: Duck under three beehives
    spriteName: BadgeSymbol@LightningReflexes
    badgeLevel: -1
    priceLogs: 500
    priceMarshmallows: -1
  - title: Teamwork!
    id: 2
    statistic: 42
    requiredStat: 3
    description: Have all the scout's leading once
    spriteName: BadgeSymbol@TeamWork
    badgeLevel: -1
    priceLogs: 500
    priceMarshmallows: -1
  - title: Problem Solver
    id: 3
    statistic: 39
    requiredStat: 5
    description: Solve five challenges in a single run
    spriteName: BadgeSymbol@ProblemSolved
    badgeLevel: 0
    priceLogs: 500
    priceMarshmallows: -1
  - title: Bird Spotter
    id: 4
    statistic: 0
    requiredStat: 3
    description: Spot three rare birds
    spriteName: BadgeSymbol@BirdSpotter
    badgeLevel: 0
    priceLogs: 500
    priceMarshmallows: -1
  - title: Why 'knot'
    id: 5
    statistic: 49
    requiredStat: 3
    description: Solve three rope challenges in a single run
    spriteName: BadgeSymbol@WhyKnot
    badgeLevel: 0
    priceLogs: 1000
    priceMarshmallows: -1
  - title: '...and my AXE'
    id: 6
    statistic: 48
    requiredStat: 3
    description: Solve three axe challenges in a single run
    spriteName: BadgeSymbol@AndMyAxe
    badgeLevel: 0
    priceLogs: 1000
    priceMarshmallows: -1
  - title: Natural Born Slinger
    id: 7
    statistic: 50
    requiredStat: 3
    description: Solve three slingshot challenges in a single run
    spriteName: BadgeSymbol@NaturalBornSlinger
    badgeLevel: 0
    priceLogs: 1000
    priceMarshmallows: -1
  - title: Gone Camping
    id: 8
    statistic: 44
    requiredStat: 1
    description: Visit a Campsite for the first time
    spriteName: BadgeSymbol@GoneCamping
    badgeLevel: -1
    priceLogs: 1000
    priceMarshmallows: -1
  - title: Botanist
    id: 9
    statistic: 4
    requiredStat: 3
    description: Pick three rare flowers
    spriteName: BadgeSymbol@Botanist
    badgeLevel: 0
    priceLogs: 1000
    priceMarshmallows: -1
  - title: Tree Hugger
    id: 10
    statistic: 19
    requiredStat: 1000
    description: Collect a total of 1000 firewood
    spriteName: BadgeSymbol@Treehugger
    badgeLevel: 0
    priceLogs: 2000
    priceMarshmallows: -1
  - title: Problem Solver
    id: 11
    statistic: 51
    requiredStat: 15
    description: Solve 15 challenges in a single run
    spriteName: BadgeSymbol@ProblemSolved
    badgeLevel: 1
    priceLogs: 2000
    priceMarshmallows: -1
  - title: Twist and Crouch
    id: 12
    statistic: 47
    requiredStat: 50
    description: Jump or duck 50x times in a single run
    spriteName: BadgeSymbol@TwistAndCrouch
    badgeLevel: 0
    priceLogs: 2000
    priceMarshmallows: -1
  - title: Be Prepared
    id: 13
    statistic: 35
    requiredStat: 1
    description: Buy a power-up and use it
    spriteName: BadgeSymbol@BePrepared
    badgeLevel: -1
    priceLogs: 2000
    priceMarshmallows: -1
  - title: Hiker
    id: 14
    statistic: 43
    requiredStat: 5000
    description: Travel 5000 meters in total
    spriteName: BadgeSymbol@Hiker
    badgeLevel: 0
    priceLogs: 2000
    priceMarshmallows: -1
  - title: Problem Solver
    id: 15
    statistic: 51
    requiredStat: 30
    description: Solve 30 challenges in a single run
    spriteName: BadgeSymbol@ProblemSolved
    badgeLevel: 2
    priceLogs: 3000
    priceMarshmallows: -1
  - title: Botanist
    id: 16
    statistic: 4
    requiredStat: 25
    description: Pick 25 rare flowers in this rank
    spriteName: BadgeSymbol@Botanist
    badgeLevel: 1
    priceLogs: 3000
    priceMarshmallows: -1
  - title: Bird Spotter
    id: 17
    statistic: 0
    requiredStat: 25
    description: Spot 25 birds in this rank
    spriteName: BadgeSymbol@BirdSpotter
    badgeLevel: 1
    priceLogs: 3000
    priceMarshmallows: -1
  - title: Forest Friends
    id: 18
    statistic: 13
    requiredStat: 1
    description: Free a trapped fox
    spriteName: BadgeSymbol@ForestFriends
    badgeLevel: 0
    priceLogs: 3000
    priceMarshmallows: -1
  - title: Hiker
    id: 19
    statistic: 43
    requiredStat: 7500
    description: Travel 7500 meters total
    spriteName: BadgeSymbol@Hiker
    badgeLevel: 1
    priceLogs: 3000
    priceMarshmallows: -1
  - title: Twist and Crouch
    id: 20
    statistic: 47
    requiredStat: 75
    description: Jump or duck 75x times in a single run
    spriteName: BadgeSymbol@TwistAndCrouch
    badgeLevel: 1
    priceLogs: 4000
    priceMarshmallows: -1
  - title: Sticks 'n Stones
    id: 21
    statistic: 50
    requiredStat: 10
    description: Solve 10 slingshot challenges in a single run
    spriteName: BadgeSymbol@NaturalBornSlinger
    badgeLevel: 1
    priceLogs: 4000
    priceMarshmallows: -1
  - title: A real AXErcise
    id: 22
    statistic: 48
    requiredStat: 10
    description: Solve 10 axe challenges in a single run
    spriteName: BadgeSymbol@AndMyAxe
    badgeLevel: 1
    priceLogs: 4000
    priceMarshmallows: -1
  - title: Tied Together
    id: 23
    statistic: 49
    requiredStat: 10
    description: Solve 10 rope challenges in a single run
    spriteName: BadgeSymbol@WhyKnot
    badgeLevel: 1
    priceLogs: 4000
    priceMarshmallows: -1
  - title: Aww!
    id: 24
    statistic: 27
    requiredStat: 1
    description: Buy an animal companion in the shop
    spriteName: BadgeSymbol@Aww
    badgeLevel: -1
    priceLogs: 4000
    priceMarshmallows: -1
  - title: Bird Spotter
    id: 25
    statistic: 0
    requiredStat: 50
    description: Spot 50 rare birds in this rank
    spriteName: BadgeSymbol@BirdSpotter
    badgeLevel: 2
    priceLogs: 5000
    priceMarshmallows: -1
  - title: Botanist
    id: 26
    statistic: 4
    requiredStat: 50
    description: Pick 50 rare flowers in this rank
    spriteName: BadgeSymbol@Botanist
    badgeLevel: 2
    priceLogs: 5000
    priceMarshmallows: -1
  - title: Tree Hugger
    id: 27
    statistic: 19
    requiredStat: 5000
    description: Collect 5000 Firewood total
    spriteName: BadgeSymbol@Treehugger
    badgeLevel: 1
    priceLogs: 5000
    priceMarshmallows: -1
  - title: Forest Friends
    id: 28
    statistic: 13
    requiredStat: 2
    description: Free a trapped turtle
    spriteName: BadgeSymbol@ForestFriends
    badgeLevel: 1
    priceLogs: 5000
    priceMarshmallows: -1
  - title: Care! Bear!
    id: 29
    statistic: 56
    requiredStat: 3
    description: Get chased by a bear three times in a single game
    spriteName: BadgeSymbol@BearCare
    badgeLevel: -1
    priceLogs: 5000
    priceMarshmallows: -1
  - title: I saw it! I swear!
    id: 30
    statistic: 11
    requiredStat: 1
    description: Spot a Mystical Being
    spriteName: BadgeSymbol@ISawItISwear
    badgeLevel: -1
    priceLogs: 7500
    priceMarshmallows: -1
  - title: Sharpshooter
    id: 31
    statistic: 50
    requiredStat: 25
    description: Solve 25 Slingshot challenges in a single run
    spriteName: BadgeSymbol@NaturalBornSlinger
    badgeLevel: 2
    priceLogs: 7500
    priceMarshmallows: -1
  - title: Axin' the right question
    id: 32
    statistic: 48
    requiredStat: 25
    description: Solve 25 Axe challenges in a single run
    spriteName: BadgeSymbol@AndMyAxe
    badgeLevel: 2
    priceLogs: 7500
    priceMarshmallows: -1
  - title: Knot even a challenge
    id: 33
    statistic: 49
    requiredStat: 25
    description: Solve 25 rope challenges in a single run
    spriteName: BadgeSymbol@WhyKnot
    badgeLevel: 2
    priceLogs: 7500
    priceMarshmallows: -1
  - title: Hiker
    id: 34
    statistic: 43
    requiredStat: 15000
    description: Travel 15000 distance total
    spriteName: BadgeSymbol@Hiker
    badgeLevel: 2
    priceLogs: 7500
    priceMarshmallows: -1
  - title: Twist and Crouch
    id: 35
    statistic: 47
    requiredStat: 100
    description: Jump or duck 100x times in a single game
    spriteName: BadgeSymbol@TwistAndCrouch
    badgeLevel: 2
    priceLogs: 10000
    priceMarshmallows: -1
  - title: All Powered Up!
    id: 36
    statistic: 55
    requiredStat: 3
    description: Use one of each powerup in a single run
    spriteName: BadgeSymbol@AllPoweredUp
    badgeLevel: -1
    priceLogs: 10000
    priceMarshmallows: -1
  - title: Tree Hugger
    id: 37
    statistic: 19
    requiredStat: 25000
    description: Collect 25000 Firewood total
    spriteName: BadgeSymbol@Treehugger
    badgeLevel: 2
    priceLogs: 10000
    priceMarshmallows: -1
  - title: Forest Friends
    id: 38
    statistic: 13
    requiredStat: 3
    description: Free a trapped eagle
    spriteName: BadgeSymbol@ForestFriends
    badgeLevel: 2
    priceLogs: 10000
    priceMarshmallows: -1
  - title: IT'S REAL!
    id: 39
    statistic: 12
    requiredStat: 1
    description: Spot a mystical being
    spriteName: BadgeSymbol@ItsReal
    badgeLevel: -1
    priceLogs: 10000
    priceMarshmallows: -1
--- !u!1001 &100100000
Prefab:
  m_ObjectHideFlags: 1
  serializedVersion: 2
  m_Modification:
    m_TransformParent: {fileID: 0}
    m_Modifications: []
    m_RemovedComponents: []
  m_ParentPrefab: {fileID: 0}
  m_RootGameObject: {fileID: 100000}
  m_IsPrefabParent: 1
  m_IsExploded: 1
